{
	"info": {
		"_postman_id": "44dd92df-41b1-4481-981c-205e29aa59a5",
		"name": "Portfolio",
		"schema": "https://schema.getpostman.com/json/collection/v2.1.0/collection.json",
		"_exporter_id": "23765138"
	},
	"item": [
		{
			"name": "Backend",
			"item": [
				{
					"name": "Root",
					"request": {
						"method": "GET",
						"header": [],
						"url": {
							"raw": "{{server}}",
							"host": [
								"{{server}}"
							]
						}
					},
					"response": []
				},
				{
					"name": "Skills",
					"request": {
						"method": "GET",
						"header": [],
						"url": {
							"raw": "{{server}}/skills/",
							"host": [
								"{{server}}"
							],
							"path": [
								"skills",
								""
							]
						}
					},
					"response": []
				},
				{
					"name": "Certifications",
					"request": {
						"method": "GET",
						"header": [],
						"url": {
							"raw": "{{server}}/certifications/",
							"host": [
								"{{server}}"
							],
							"path": [
								"certifications",
								""
							]
						}
					},
					"response": []
				},
				{
					"name": "Projects",
					"request": {
						"method": "GET",
						"header": [],
						"url": {
							"raw": "{{server}}/Projects/",
							"host": [
								"{{server}}"
							],
							"path": [
								"Projects",
								""
							]
						}
					},
					"response": []
				},
				{
					"name": "Roadmap",
					"request": {
						"method": "GET",
						"header": [],
						"url": {
							"raw": "{{server}}/roadmap/",
							"host": [
								"{{server}}"
							],
							"path": [
								"roadmap",
								""
							]
						}
					},
					"response": []
				},
				{
					"name": "Wakatime",
					"request": {
						"method": "GET",
						"header": [],
						"url": {
							"raw": "{{server}}/wakatime/",
							"host": [
								"{{server}}"
							],
							"path": [
								"wakatime",
								""
							]
						}
					},
					"response": []
				},
				{
					"name": "Flush cache",
					"request": {
						"method": "POST",
						"header": [],
						"body": {
							"mode": "raw",
							"raw": "{\r\n    \"ExtraAuth\": \"flush\"\r\n}",
							"options": {
								"raw": {
									"language": "json"
								}
							}
						},
						"url": {
							"raw": "{{server}}/flush-cache/",
							"host": [
								"{{server}}"
							],
							"path": [
								"flush-cache",
								""
							]
						}
					},
					"response": []
				}
			]
		},
		{
			"name": "Seed data",
			"request": {
				"auth": {
					"type": "bearer",
					"bearer": [
						{
							"key": "token",
							"value": "rvbh0qcgk6",
							"type": "string"
						}
					]
				},
				"method": "POST",
				"header": [],
				"url": {
					"raw": "https://localhost:5000/seed/",
					"protocol": "https",
					"host": [
						"localhost"
					],
					"port": "5000",
					"path": [
						"seed",
						""
					]
				}
			},
			"response": []
		},
		{
			"name": "Quotes",
			"request": {
				"method": "GET",
				"header": [],
				"url": {
					"raw": "https://script.google.com/macros/s/AKfycbxvNOYZAlhezTVrW5vmbN1L3dulO8V7NfqABwPteDjX5jNYAfZrtY1X7IBFyQnApNI/exec?action=getData&sheetName=quotes",
					"protocol": "https",
					"host": [
						"script",
						"google",
						"com"
					],
					"path": [
						"macros",
						"s",
						"AKfycbxvNOYZAlhezTVrW5vmbN1L3dulO8V7NfqABwPteDjX5jNYAfZrtY1X7IBFyQnApNI",
						"exec"
					],
					"query": [
						{
							"key": "action",
							"value": "getData"
						},
						{
							"key": "sheetName",
							"value": "quotes"
						}
					]
				}
			},
			"response": []
		},
		{
			"name": "Quotes on Cyclic",
			"request": {
				"method": "GET",
				"header": [],
				"url": {
					"raw": "https://thejb-nmcu.cyclic.cloud/",
					"protocol": "https",
					"host": [
						"thejb-nmcu",
						"cyclic",
						"cloud"
					],
					"path": [
						""
					]
				}
			},
			"response": []
		},
		{
			"name": "Get roadmap",
			"request": {
				"method": "GET",
				"header": [],
				"url": {
					"raw": "http://localhost:5000/roadmap2/",
					"protocol": "http",
					"host": [
						"localhost"
					],
					"port": "5000",
					"path": [
						"roadmap2",
						""
					]
				}
			},
			"response": []
		}
	],
	"auth": {
		"type": "bearer",
		"bearer": [
			{
				"key": "token",
				"value": "{{dev-token}}",
				"type": "string"
			}
		]
	},
	"event": [
		{
			"listen": "prerequest",
			"script": {
				"type": "text/javascript",
				"exec": [
					""
				]
			}
		},
		{
			"listen": "test",
			"script": {
				"type": "text/javascript",
				"exec": [
					""
				]
			}
		}
	]
}